Lecture 11/12 – ESS 330
…
Coefficients:
      (Intercept)     bill_length_mm        body_mass_g           sex_male  
         200.9649             2.2754             4.6414             0.7208  
     island_Dream   island_Torgersen  species_Chinstrap     species_Gentoo  
           0.6525             0.9800             0.5640             8.0796  
 speciesChinstrap      speciesGentoo  
               NA                 NA  
# A tibble: 1 × 12
  r.squared adj.r.squared sigma statistic   p.value    df logLik   AIC   BIC
      <dbl>         <dbl> <dbl>     <dbl>     <dbl> <dbl>  <dbl> <dbl> <dbl>
1     0.863         0.861  5.23      294. 2.15e-136     7 -1020. 2057. 2092.
# ℹ 3 more variables: deviance <dbl>, df.residual <int>, nobs <int>
# A tibble: 333 × 15
   bill_length_mm body_mass_g flipper_length_mm sex_male island_Dream
            <dbl>       <dbl>             <int>    <dbl>        <dbl>
 1         -0.886      -0.565               181    0.990       -0.750
 2         -0.812      -0.502               186   -1.01        -0.750
 3         -0.665      -1.19                195   -1.01        -0.750
 4         -1.33       -0.940               193   -1.01        -0.750
 5         -0.849      -0.690               190    0.990       -0.750
 6         -0.923      -0.721               181   -1.01        -0.750
 7         -0.867       0.592               195    0.990       -0.750
 8         -0.518      -1.25                182   -1.01        -0.750
 9         -0.978      -0.502               191    0.990       -0.750
10         -1.71        0.248               198    0.990       -0.750
# ℹ 323 more rows
# ℹ 10 more variables: island_Torgersen <dbl>, species_Chinstrap <dbl>,
#   species_Gentoo <dbl>, species <fct>, .fitted <dbl>, .resid <dbl>,
#   .hat <dbl>, .sigma <dbl>, .cooksd <dbl>, .std.resid <dbl>
…
Coefficients:
      (Intercept)     bill_length_mm        body_mass_g           sex_male  
         200.9649             2.2754             4.6414             0.7208  
     island_Dream   island_Torgersen  species_Chinstrap     species_Gentoo  
           0.6525             0.9800             0.5640             8.0796  
 speciesChinstrap      speciesGentoo  
               NA                 NA  
# A tibble: 1 × 12
  r.squared adj.r.squared sigma statistic   p.value    df logLik   AIC   BIC
      <dbl>         <dbl> <dbl>     <dbl>     <dbl> <dbl>  <dbl> <dbl> <dbl>
1     0.863         0.861  5.23      294. 2.15e-136     7 -1020. 2057. 2092.
# ℹ 3 more variables: deviance <dbl>, df.residual <int>, nobs <int>
# A tibble: 333 × 15
   bill_length_mm body_mass_g flipper_length_mm sex_male island_Dream
            <dbl>       <dbl>             <int>    <dbl>        <dbl>
 1         -0.886      -0.565               181    0.990       -0.750
 2         -0.812      -0.502               186   -1.01        -0.750
 3         -0.665      -1.19                195   -1.01        -0.750
 4         -1.33       -0.940               193   -1.01        -0.750
 5         -0.849      -0.690               190    0.990       -0.750
 6         -0.923      -0.721               181   -1.01        -0.750
 7         -0.867       0.592               195    0.990       -0.750
 8         -0.518      -1.25                182   -1.01        -0.750
 9         -0.978      -0.502               191    0.990       -0.750
10         -1.71        0.248               198    0.990       -0.750
# ℹ 323 more rows
# ℹ 10 more variables: island_Torgersen <dbl>, species_Chinstrap <dbl>,
#   species_Gentoo <dbl>, species <fct>, .fitted <dbl>, .resid <dbl>,
#   .hat <dbl>, .sigma <dbl>, .cooksd <dbl>, .std.resid <dbl>
…
