ESS 330 – Lecture 04
…
Hurricane Ana

(ana = storms[storms$name == "Ana",])

#> # A tibble: 189 × 13
#>    name   year month   day  hour   lat  long status      category  wind pressure
#>    <chr> <dbl> <dbl> <int> <dbl> <dbl> <dbl> <fct>          <dbl> <int>    <int>
#>  1 Ana    1979     6    19    12  10   -45   tropical d…       NA    25     1011
#>  2 Ana    1979     6    19    18  10.2 -46   tropical d…       NA    25     1011
#>  3 Ana    1979     6    20     0  10.5 -47   tropical d…       NA    25     1010
#>  4 Ana    1979     6    20     6  10.9 -48.1 tropical d…       NA    25     1010
#>  5 Ana    1979     6    20    12  11.3 -49.2 tropical d…       NA    25     1010
#>  6 Ana    1979     6    20    18  11.8 -50.2 tropical d…       NA    25     1009
#>  7 Ana    1979     6    21     0  12.3 -51.1 tropical d…       NA    30     1009
#>  8 Ana    1979     6    21     6  12.9 -51.9 tropical d…       NA    30     1008
#>  9 Ana    1979     6    21    12  13.5 -52.7 tropical d…       NA    30     1008
#> 10 Ana    1979     6    21    18  13.9 -53.5 tropical d…       NA    30     1007
#> # ℹ 179 more rows
#> # ℹ 2 more variables: tropicalstorm_force_diameter <int>,
#> #   hurricane_force_diameter <int>

Hurricane Ana

(ana = storms[storms$name == "Ana",])
unique(ana$year)

#> # A tibble: 189 × 13
#>    name   year month   day  hour   lat  long status      category  wind pressure
#>    <chr> <dbl> <dbl> <int> <dbl> <dbl> <dbl> <fct>          <dbl> <int>    <int>
#>  1 Ana    1979     6    19    12  10   -45   tropical d…       NA    25     1011
#>  2 Ana    1979     6    19    18  10.2 -46   tropical d…       NA    25     1011
#>  3 Ana    1979     6    20     0  10.5 -47   tropical d…       NA    25     1010
#>  4 Ana    1979     6    20     6  10.9 -48.1 tropical d…       NA    25     1010
#>  5 Ana    1979     6    20    12  11.3 -49.2 tropical d…       NA    25     1010
#>  6 Ana    1979     6    20    18  11.8 -50.2 tropical d…       NA    25     1009
#>  7 Ana    1979     6    21     0  12.3 -51.1 tropical d…       NA    30     1009
#>  8 Ana    1979     6    21     6  12.9 -51.9 tropical d…       NA    30     1008
#>  9 Ana    1979     6    21    12  13.5 -52.7 tropical d…       NA    30     1008
#> 10 Ana    1979     6    21    18  13.9 -53.5 tropical d…       NA    30     1007
#> # ℹ 179 more rows
#> # ℹ 2 more variables: tropicalstorm_force_diameter <int>,
#> #   hurricane_force_diameter <int>
…
