ESS 330 – Lecture 06
…
Subsetting rows by conditions

filter() takes logical (binary) expressions and returns the rows in which all conditions are TRUE.

filter() does NOT impact columns

the data.frame is ALWAYS the fist argument

Lets find all rows in gapminder that in which the life expectancy is less then 40

filter(gapminder, lifeExp < 40)
# A tibble: 124 × 6
   country     continent  year lifeExp      pop gdpPercap
   <fct>       <fct>     <int>   <dbl>    <int>     <dbl>
 1 Afghanistan Asia       1952    28.8  8425333      779.
 2 Afghanistan Asia       1957    30.3  9240934      821.
 3 Afghanistan Asia       1962    32.0 10267083      853.
 4 Afghanistan Asia       1967    34.0 11537966      836.
 5 Afghanistan Asia       1972    36.1 13079460      740.
 6 Afghanistan Asia       1977    38.4 14880372      786.
 7 Afghanistan Asia       1982    39.9 12881816      978.
 8 Angola      Africa     1952    30.0  4232095     3521.
 9 Angola      Africa     1957    32.0  4561361     3828.
10 Angola      Africa     1962    34    4826015     4269.
# ℹ 114 more rows
…
Base Alternative

Compare with some base R code to accomplish the same things:

gapminder[gapminder$lifeExp < 40 & gapminder$year == 2007, ]
# A tibble: 1 × 6
  country   continent  year lifeExp     pop gdpPercap
  <fct>     <fct>     <int>   <dbl>   <int>     <dbl>
1 Swaziland Africa     2007    39.6 1133066     4513.

No matter how you do things, You should never subset your data like this:

gapminder[19:70, ]
# A tibble: 52 × 6
   country continent  year lifeExp      pop gdpPercap
   <fct>   <fct>     <int>   <dbl>    <int>     <dbl>
 1 Albania Europe     1982    70.4  2780097     3631.
 2 Albania Europe     1987    72    3075321     3739.
 3 Albania Europe     1992    71.6  3326498     2497.
 4 Albania Europe     1997    73.0  3428038     3193.
 5 Albania Europe     2002    75.7  3508512     4604.
 6 Albania Europe     2007    76.4  3600523     5937.
 7 Algeria Africa     1952    43.1  9279525     2449.
 8 Algeria Africa     1957    45.7 10270856     3014.
 9 Algeria Africa     1962    48.3 11000948     2551.
10 Algeria Africa     1967    51.4 12760499     3247.
# ℹ 42 more rows
…
It’s fragile. This line of code will produce different results if someone changes the raw data

Say more years are added

Say another variable is added

Reducing data.frames by variables

Use select() to subset the variables or columns you want.

the data.frame is ALWAYS the fist argument

select(gapminder, country, lifeExp)
# A tibble: 1,704 × 2
   country     lifeExp
   <fct>         <dbl>
 1 Afghanistan    28.8
 2 Afghanistan    30.3
 3 Afghanistan    32.0
 4 Afghanistan    34.0
 5 Afghanistan    36.1
 6 Afghanistan    38.4
 7 Afghanistan    39.9
 8 Afghanistan    40.8
 9 Afghanistan    41.7
10 Afghanistan    41.8
# ℹ 1,694 more rows

Reducing data.frames by variables

select() can also be used to rename existing columns

select(gapminder, country, life_exp = lifeExp)
# A tibble: 1,704 × 2
   country     life_exp
   <fct>          <dbl>
 1 Afghanistan     28.8
 2 Afghanistan     30.3
 3 Afghanistan     32.0
 4 Afghanistan     34.0
 5 Afghanistan     36.1
 6 Afghanistan     38.4
 7 Afghanistan     39.9
 8 Afghanistan     40.8
 9 Afghanistan     41.7
10 Afghanistan     41.8
# ℹ 1,694 more rows

Reducing data.frames by variables

select() can be used to remove columns. The ! negates a selection

select(gapminder, !country)
# A tibble: 1,704 × 5
   continent  year lifeExp      pop gdpPercap
   <fct>     <int>   <dbl>    <int>     <dbl>
 1 Asia       1952    28.8  8425333      779.
 2 Asia       1957    30.3  9240934      821.
 3 Asia       1962    32.0 10267083      853.
 4 Asia       1967    34.0 11537966      836.
 5 Asia       1972    36.1 13079460      740.
 6 Asia       1977    38.4 14880372      786.
 7 Asia       1982    39.9 12881816      978.
 8 Asia       1987    40.8 13867957      852.
 9 Asia       1992    41.7 16317921      649.
10 Asia       1997    41.8 22227415      635.
# ℹ 1,694 more rows

Renaming & Reordering with dplyr

gapminder |> 
  select(country, continent, pop) |> 
  rename(population = pop) |> 
  relocate(continent, country, population)
# A tibble: 1,704 × 3
   continent country     population
   <fct>     <fct>            <int>
 1 Asia      Afghanistan    8425333
 2 Asia      Afghanistan    9240934
 3 Asia      Afghanistan   10267083
 4 Asia      Afghanistan   11537966
 5 Asia      Afghanistan   13079460
 6 Asia      Afghanistan   14880372
 7 Asia      Afghanistan   12881816
 8 Asia      Afghanistan   13867957
 9 Asia      Afghanistan   16317921
10 Asia      Afghanistan   22227415
# ℹ 1,694 more rows
…
This new syntax leads to code that is much easier to write and to read.

Here’s what it looks like: |>.

The RStudio keyboard shortcut: Ctrl+Shift+M (Windows), Cmd+Shift+M (Mac).

The pipe passes the object on the left hand side of the pipe into the first argument of the right hand function:

Example

So this:

select(gapminder, country, lifeExp)
# A tibble: 1,704 × 2
   country     lifeExp
   <fct>         <dbl>
 1 Afghanistan    28.8
 2 Afghanistan    30.3
 3 Afghanistan    32.0
 4 Afghanistan    34.0
 5 Afghanistan    36.1
 6 Afghanistan    38.4
 7 Afghanistan    39.9
 8 Afghanistan    40.8
 9 Afghanistan    41.7
10 Afghanistan    41.8
# ℹ 1,694 more rows

…is the same as this:

gapminder |> 
  select(country, lifeExp)
# A tibble: 1,704 × 2
   country     lifeExp
   <fct>         <dbl>
 1 Afghanistan    28.8
 2 Afghanistan    30.3
 3 Afghanistan    32.0
 4 Afghanistan    34.0
 5 Afghanistan    36.1
 6 Afghanistan    38.4
 7 Afghanistan    39.9
 8 Afghanistan    40.8
 9 Afghanistan    41.7
10 Afghanistan    41.8
# ℹ 1,694 more rows

|> across verbs

gapminder

# A tibble: 1,704 × 6
   country     continent  year lifeExp      pop gdpPercap
   <fct>       <fct>     <int>   <dbl>    <int>     <dbl>
 1 Afghanistan Asia       1952    28.8  8425333      779.
 2 Afghanistan Asia       1957    30.3  9240934      821.
 3 Afghanistan Asia       1962    32.0 10267083      853.
 4 Afghanistan Asia       1967    34.0 11537966      836.
 5 Afghanistan Asia       1972    36.1 13079460      740.
 6 Afghanistan Asia       1977    38.4 14880372      786.
 7 Afghanistan Asia       1982    39.9 12881816      978.
 8 Afghanistan Asia       1987    40.8 13867957      852.
 9 Afghanistan Asia       1992    41.7 16317921      649.
10 Afghanistan Asia       1997    41.8 22227415      635.
# ℹ 1,694 more rows

|> across verbs

gapminder |>
  select(pop, gdpPercap, year, country)

# A tibble: 1,704 × 4
        pop gdpPercap  year country    
      <int>     <dbl> <int> <fct>      
 1  8425333      779.  1952 Afghanistan
 2  9240934      821.  1957 Afghanistan
 3 10267083      853.  1962 Afghanistan
 4 11537966      836.  1967 Afghanistan
 5 13079460      740.  1972 Afghanistan
 6 14880372      786.  1977 Afghanistan
 7 12881816      978.  1982 Afghanistan
 8 13867957      852.  1987 Afghanistan
 9 16317921      649.  1992 Afghanistan
10 22227415      635.  1997 Afghanistan
# ℹ 1,694 more rows

|> across verbs

gapminder |>
  select(pop, gdpPercap, year, country) |>
  filter(pop > 100000000 & gdpPercap > 5000)

# A tibble: 30 × 4
         pop gdpPercap  year country
       <int>     <dbl> <int> <fct>  
 1 114313951     6660.  1977 Brazil 
 2 128962939     7031.  1982 Brazil 
 3 142938076     7807.  1987 Brazil 
 4 155975974     6950.  1992 Brazil 
 5 168546719     7958.  1997 Brazil 
 6 179914212     8131.  2002 Brazil 
 7 190010647     9066.  2007 Brazil 
 8 100825279     9848.  1967 Japan  
 9 107188273    14779.  1972 Japan  
10 113872473    16610.  1977 Japan  
# ℹ 20 more rows
…
Use mutate() to add new variables

mutate() defines and inserts new variables into a existing data.frame

mutate() builds new variables sequentially so you can reference earlier ones when defining later ones

In the gapminder dataset we have a population and gdp per capita variable. Lets calculate the GDP of each county

Mutate

gapminder

# A tibble: 1,704 × 6
   country     continent  year lifeExp      pop gdpPercap
   <fct>       <fct>     <int>   <dbl>    <int>     <dbl>
 1 Afghanistan Asia       1952    28.8  8425333      779.
 2 Afghanistan Asia       1957    30.3  9240934      821.
 3 Afghanistan Asia       1962    32.0 10267083      853.
 4 Afghanistan Asia       1967    34.0 11537966      836.
 5 Afghanistan Asia       1972    36.1 13079460      740.
 6 Afghanistan Asia       1977    38.4 14880372      786.
 7 Afghanistan Asia       1982    39.9 12881816      978.
 8 Afghanistan Asia       1987    40.8 13867957      852.
 9 Afghanistan Asia       1992    41.7 16317921      649.
10 Afghanistan Asia       1997    41.8 22227415      635.
# ℹ 1,694 more rows

Mutate

gapminder |>
  mutate(gdp = pop * gdpPercap)

# A tibble: 1,704 × 7
   country     continent  year lifeExp      pop gdpPercap          gdp
   <fct>       <fct>     <int>   <dbl>    <int>     <dbl>        <dbl>
 1 Afghanistan Asia       1952    28.8  8425333      779.  6567086330.
 2 Afghanistan Asia       1957    30.3  9240934      821.  7585448670.
 3 Afghanistan Asia       1962    32.0 10267083      853.  8758855797.
 4 Afghanistan Asia       1967    34.0 11537966      836.  9648014150.
 5 Afghanistan Asia       1972    36.1 13079460      740.  9678553274.
 6 Afghanistan Asia       1977    38.4 14880372      786. 11697659231.
 7 Afghanistan Asia       1982    39.9 12881816      978. 12598563401.
 8 Afghanistan Asia       1987    40.8 13867957      852. 11820990309.
 9 Afghanistan Asia       1992    41.7 16317921      649. 10595901589.
10 Afghanistan Asia       1997    41.8 22227415      635. 14121995875.
# ℹ 1,694 more rows

Mutate

gapminder |>
  mutate(gdp = pop * gdpPercap) |>
  mutate(gdpPercap = NULL)

# A tibble: 1,704 × 6
   country     continent  year lifeExp      pop          gdp
   <fct>       <fct>     <int>   <dbl>    <int>        <dbl>
 1 Afghanistan Asia       1952    28.8  8425333  6567086330.
 2 Afghanistan Asia       1957    30.3  9240934  7585448670.
 3 Afghanistan Asia       1962    32.0 10267083  8758855797.
 4 Afghanistan Asia       1967    34.0 11537966  9648014150.
 5 Afghanistan Asia       1972    36.1 13079460  9678553274.
 6 Afghanistan Asia       1977    38.4 14880372 11697659231.
 7 Afghanistan Asia       1982    39.9 12881816 12598563401.
 8 Afghanistan Asia       1987    40.8 13867957 11820990309.
 9 Afghanistan Asia       1992    41.7 16317921 10595901589.
10 Afghanistan Asia       1997    41.8 22227415 14121995875.
# ℹ 1,694 more rows

Use sumarize() to reduce a data.set

summarize() takes a dataset with n observations, computes requested values, and returns a dataset with 1 observation.

summarize() can compute summary statistics for one or more columns in a data.frame.

The first argument in summarize() is the data.frame.

summarize

gapminder

# A tibble: 1,704 × 6
   country     continent  year lifeExp      pop gdpPercap
   <fct>       <fct>     <int>   <dbl>    <int>     <dbl>
 1 Afghanistan Asia       1952    28.8  8425333      779.
 2 Afghanistan Asia       1957    30.3  9240934      821.
 3 Afghanistan Asia       1962    32.0 10267083      853.
 4 Afghanistan Asia       1967    34.0 11537966      836.
 5 Afghanistan Asia       1972    36.1 13079460      740.
 6 Afghanistan Asia       1977    38.4 14880372      786.
 7 Afghanistan Asia       1982    39.9 12881816      978.
 8 Afghanistan Asia       1987    40.8 13867957      852.
 9 Afghanistan Asia       1992    41.7 16317921      649.
10 Afghanistan Asia       1997    41.8 22227415      635.
# ℹ 1,694 more rows

summarize

gapminder |>
  mutate(gdp = pop * gdpPercap)

# A tibble: 1,704 × 7
   country     continent  year lifeExp      pop gdpPercap          gdp
   <fct>       <fct>     <int>   <dbl>    <int>     <dbl>        <dbl>
 1 Afghanistan Asia       1952    28.8  8425333      779.  6567086330.
 2 Afghanistan Asia       1957    30.3  9240934      821.  7585448670.
 3 Afghanistan Asia       1962    32.0 10267083      853.  8758855797.
 4 Afghanistan Asia       1967    34.0 11537966      836.  9648014150.
 5 Afghanistan Asia       1972    36.1 13079460      740.  9678553274.
 6 Afghanistan Asia       1977    38.4 14880372      786. 11697659231.
 7 Afghanistan Asia       1982    39.9 12881816      978. 12598563401.
 8 Afghanistan Asia       1987    40.8 13867957      852. 11820990309.
 9 Afghanistan Asia       1992    41.7 16317921      649. 10595901589.
10 Afghanistan Asia       1997    41.8 22227415      635. 14121995875.
# ℹ 1,694 more rows
…
# A tibble: 1 × 2
            gpd            sd
          <dbl>         <dbl>
1 186809560507. 714029666918.

Arrange

orders the rows of a data.frame rows by the values of selected columns.

Decreasing or Increasing?

gapminder

# A tibble: 1,704 × 6
   country     continent  year lifeExp      pop gdpPercap
   <fct>       <fct>     <int>   <dbl>    <int>     <dbl>
 1 Afghanistan Asia       1952    28.8  8425333      779.
 2 Afghanistan Asia       1957    30.3  9240934      821.
 3 Afghanistan Asia       1962    32.0 10267083      853.
 4 Afghanistan Asia       1967    34.0 11537966      836.
 5 Afghanistan Asia       1972    36.1 13079460      740.
 6 Afghanistan Asia       1977    38.4 14880372      786.
 7 Afghanistan Asia       1982    39.9 12881816      978.
 8 Afghanistan Asia       1987    40.8 13867957      852.
 9 Afghanistan Asia       1992    41.7 16317921      649.
10 Afghanistan Asia       1997    41.8 22227415      635.
# ℹ 1,694 more rows

Decreasing or Increasing?

gapminder |>
  filter(year == 2007)

# A tibble: 142 × 6
   country     continent  year lifeExp       pop gdpPercap
   <fct>       <fct>     <int>   <dbl>     <int>     <dbl>
 1 Afghanistan Asia       2007    43.8  31889923      975.
 2 Albania     Europe     2007    76.4   3600523     5937.
 3 Algeria     Africa     2007    72.3  33333216     6223.
 4 Angola      Africa     2007    42.7  12420476     4797.
 5 Argentina   Americas   2007    75.3  40301927    12779.
 6 Australia   Oceania    2007    81.2  20434176    34435.
 7 Austria     Europe     2007    79.8   8199783    36126.
 8 Bahrain     Asia       2007    75.6    708573    29796.
 9 Bangladesh  Asia       2007    64.1 150448339     1391.
10 Belgium     Europe     2007    79.4  10392226    33693.
# ℹ 132 more rows

Decreasing or Increasing?

gapminder |>
  filter(year == 2007) |>
  arrange(lifeExp)

# A tibble: 142 × 6
   country                  continent  year lifeExp      pop gdpPercap
   <fct>                    <fct>     <int>   <dbl>    <int>     <dbl>
 1 Swaziland                Africa     2007    39.6  1133066     4513.
 2 Mozambique               Africa     2007    42.1 19951656      824.
 3 Zambia                   Africa     2007    42.4 11746035     1271.
 4 Sierra Leone             Africa     2007    42.6  6144562      863.
 5 Lesotho                  Africa     2007    42.6  2012649     1569.
 6 Angola                   Africa     2007    42.7 12420476     4797.
 7 Zimbabwe                 Africa     2007    43.5 12311143      470.
 8 Afghanistan              Asia       2007    43.8 31889923      975.
 9 Central African Republic Africa     2007    44.7  4369038      706.
10 Liberia                  Africa     2007    45.7  3193942      415.
# ℹ 132 more rows

Decreasing or Increasing?

gapminder |>
  filter(year == 2007) |>
  arrange(lifeExp) |>
  arrange(-lifeExp)

# A tibble: 142 × 6
   country          continent  year lifeExp       pop gdpPercap
   <fct>            <fct>     <int>   <dbl>     <int>     <dbl>
 1 Japan            Asia       2007    82.6 127467972    31656.
 2 Hong Kong, China Asia       2007    82.2   6980412    39725.
 3 Iceland          Europe     2007    81.8    301931    36181.
 4 Switzerland      Europe     2007    81.7   7554661    37506.
 5 Australia        Oceania    2007    81.2  20434176    34435.
 6 Spain            Europe     2007    80.9  40448191    28821.
 7 Sweden           Europe     2007    80.9   9031088    33860.
 8 Israel           Asia       2007    80.7   6426679    25523.
 9 France           Europe     2007    80.7  61083916    30470.
10 Canada           Americas   2007    80.7  33390141    36319.
# ℹ 132 more rows

Multi sort (order matters)

gapminder

# A tibble: 1,704 × 6
   country     continent  year lifeExp      pop gdpPercap
   <fct>       <fct>     <int>   <dbl>    <int>     <dbl>
 1 Afghanistan Asia       1952    28.8  8425333      779.
 2 Afghanistan Asia       1957    30.3  9240934      821.
 3 Afghanistan Asia       1962    32.0 10267083      853.
 4 Afghanistan Asia       1967    34.0 11537966      836.
 5 Afghanistan Asia       1972    36.1 13079460      740.
 6 Afghanistan Asia       1977    38.4 14880372      786.
 7 Afghanistan Asia       1982    39.9 12881816      978.
 8 Afghanistan Asia       1987    40.8 13867957      852.
 9 Afghanistan Asia       1992    41.7 16317921      649.
10 Afghanistan Asia       1997    41.8 22227415      635.
# ℹ 1,694 more rows

Multi sort (order matters)

gapminder |>
  select(country, year, pop)

# A tibble: 1,704 × 3
   country      year      pop
   <fct>       <int>    <int>
 1 Afghanistan  1952  8425333
 2 Afghanistan  1957  9240934
 3 Afghanistan  1962 10267083
 4 Afghanistan  1967 11537966
 5 Afghanistan  1972 13079460
 6 Afghanistan  1977 14880372
 7 Afghanistan  1982 12881816
 8 Afghanistan  1987 13867957
 9 Afghanistan  1992 16317921
10 Afghanistan  1997 22227415
# ℹ 1,694 more rows

Multi sort (order matters)

gapminder |>
  select(country, year, pop) |>
  arrange(year, country)

# A tibble: 1,704 × 3
   country      year      pop
   <fct>       <int>    <int>
 1 Afghanistan  1952  8425333
 2 Albania      1952  1282697
 3 Algeria      1952  9279525
 4 Angola       1952  4232095
 5 Argentina    1952 17876956
 6 Australia    1952  8691212
 7 Austria      1952  6927772
 8 Bahrain      1952   120447
 9 Bangladesh   1952 46886859
10 Belgium      1952  8730405
# ℹ 1,694 more rows

Multi sort (order matters)

gapminder |>
  select(country, year, pop) |>
  arrange(year, country) |>
  arrange(country, year)

# A tibble: 1,704 × 3
   country      year      pop
   <fct>       <int>    <int>
 1 Afghanistan  1952  8425333
 2 Afghanistan  1957  9240934
 3 Afghanistan  1962 10267083
 4 Afghanistan  1967 11537966
 5 Afghanistan  1972 13079460
 6 Afghanistan  1977 14880372
 7 Afghanistan  1982 12881816
 8 Afghanistan  1987 13867957
 9 Afghanistan  1992 16317921
10 Afghanistan  1997 22227415
# ℹ 1,694 more rows

Combining operations

gapminder

# A tibble: 1,704 × 6
   country     continent  year lifeExp      pop gdpPercap
   <fct>       <fct>     <int>   <dbl>    <int>     <dbl>
 1 Afghanistan Asia       1952    28.8  8425333      779.
 2 Afghanistan Asia       1957    30.3  9240934      821.
 3 Afghanistan Asia       1962    32.0 10267083      853.
 4 Afghanistan Asia       1967    34.0 11537966      836.
 5 Afghanistan Asia       1972    36.1 13079460      740.
 6 Afghanistan Asia       1977    38.4 14880372      786.
 7 Afghanistan Asia       1982    39.9 12881816      978.
 8 Afghanistan Asia       1987    40.8 13867957      852.
 9 Afghanistan Asia       1992    41.7 16317921      649.
10 Afghanistan Asia       1997    41.8 22227415      635.
# ℹ 1,694 more rows

Combining operations

gapminder |>
  select(year, country, gdpPercap)

# A tibble: 1,704 × 3
    year country     gdpPercap
   <int> <fct>           <dbl>
 1  1952 Afghanistan      779.
 2  1957 Afghanistan      821.
 3  1962 Afghanistan      853.
 4  1967 Afghanistan      836.
 5  1972 Afghanistan      740.
 6  1977 Afghanistan      786.
 7  1982 Afghanistan      978.
 8  1987 Afghanistan      852.
 9  1992 Afghanistan      649.
10  1997 Afghanistan      635.
# ℹ 1,694 more rows
…
