ESS 330 – Lecture 08
…
Question 1: Close…

covid

# A tibble: 2,502,832 × 6
   date       county      state      fips  cases deaths
   <date>     <chr>       <chr>      <chr> <dbl>  <dbl>
 1 2020-01-21 Snohomish   Washington 53061     1      0
 2 2020-01-22 Snohomish   Washington 53061     1      0
 3 2020-01-23 Snohomish   Washington 53061     1      0
 4 2020-01-24 Cook        Illinois   17031     1      0
 5 2020-01-24 Snohomish   Washington 53061     1      0
 6 2020-01-25 Orange      California 06059     1      0
 7 2020-01-25 Cook        Illinois   17031     1      0
 8 2020-01-25 Snohomish   Washington 53061     1      0
 9 2020-01-26 Maricopa    Arizona    04013     1      0
10 2020-01-26 Los Angeles California 06037     1      0
# ℹ 2,502,822 more rows

Question 1: Close…

covid |>
  filter(date == max(date))

# A tibble: 3,258 × 6
   date       county   state   fips  cases deaths
   <date>     <chr>    <chr>   <chr> <dbl>  <dbl>
 1 2022-05-13 Autauga  Alabama 01001 15863    216
 2 2022-05-13 Baldwin  Alabama 01003 55862    681
 3 2022-05-13 Barbour  Alabama 01005  5681     98
 4 2022-05-13 Bibb     Alabama 01007  6457    105
 5 2022-05-13 Blount   Alabama 01009 15005    243
 6 2022-05-13 Bullock  Alabama 01011  2319     54
 7 2022-05-13 Butler   Alabama 01013  5068    129
 8 2022-05-13 Calhoun  Alabama 01015 32453    627
 9 2022-05-13 Chambers Alabama 01017  8508    162
10 2022-05-13 Cherokee Alabama 01019  5131     86
# ℹ 3,248 more rows

Question 1: Close…

covid |>
  filter(date == max(date)) |>
  group_by(state)

# A tibble: 3,258 × 6
# Groups:   state [56]
   date       county   state   fips  cases deaths
   <date>     <chr>    <chr>   <chr> <dbl>  <dbl>
 1 2022-05-13 Autauga  Alabama 01001 15863    216
 2 2022-05-13 Baldwin  Alabama 01003 55862    681
 3 2022-05-13 Barbour  Alabama 01005  5681     98
 4 2022-05-13 Bibb     Alabama 01007  6457    105
 5 2022-05-13 Blount   Alabama 01009 15005    243
 6 2022-05-13 Bullock  Alabama 01011  2319     54
 7 2022-05-13 Butler   Alabama 01013  5068    129
 8 2022-05-13 Calhoun  Alabama 01015 32453    627
 9 2022-05-13 Chambers Alabama 01017  8508    162
10 2022-05-13 Cherokee Alabama 01019  5131     86
# ℹ 3,248 more rows

Question 1: Close…

covid |>
  filter(date == max(date)) |>
  group_by(state) |>
  summarize(cases = sum(cases, na.rm = TRUE))

# A tibble: 56 × 2
   state                  cases
   <chr>                  <dbl>
 1 Alabama              1304710
 2 Alaska                254467
 3 American Samoa          5930
 4 Arizona              2030925
 5 Arkansas              838251
 6 California           9351630
 7 Colorado             1412121
 8 Connecticut           779460
 9 Delaware              267265
10 District of Columbia  143943
# ℹ 46 more rows

Question 1: Close…

covid |>
  filter(date == max(date)) |>
  group_by(state) |>
  summarize(cases = sum(cases, na.rm = TRUE)) |>
  ungroup()

# A tibble: 56 × 2
   state                  cases
   <chr>                  <dbl>
 1 Alabama              1304710
 2 Alaska                254467
 3 American Samoa          5930
 4 Arizona              2030925
 5 Arkansas              838251
 6 California           9351630
 7 Colorado             1412121
 8 Connecticut           779460
 9 Delaware              267265
10 District of Columbia  143943
# ℹ 46 more rows
…
Question 1: Close…

covid |>
  filter(date == max(date)) |>
  group_by(state) |>
  summarize(cases = sum(cases, na.rm = TRUE)) |>
  ungroup() |>
  slice_max(cases, n = 6) |>
  pull(state)

covid

[1] "California"   "Texas"        "Florida"      "New York"     "Illinois"    
[6] "Pennsylvania"
# A tibble: 2,502,832 × 6
   date       county      state      fips  cases deaths
   <date>     <chr>       <chr>      <chr> <dbl>  <dbl>
 1 2020-01-21 Snohomish   Washington 53061     1      0
 2 2020-01-22 Snohomish   Washington 53061     1      0
 3 2020-01-23 Snohomish   Washington 53061     1      0
 4 2020-01-24 Cook        Illinois   17031     1      0
 5 2020-01-24 Snohomish   Washington 53061     1      0
 6 2020-01-25 Orange      California 06059     1      0
 7 2020-01-25 Cook        Illinois   17031     1      0
 8 2020-01-25 Snohomish   Washington 53061     1      0
 9 2020-01-26 Maricopa    Arizona    04013     1      0
10 2020-01-26 Los Angeles California 06037     1      0
# ℹ 2,502,822 more rows
…
covid |>
  filter(date == max(date)) |>
  group_by(state) |>
  summarize(cases = sum(cases, na.rm = TRUE)) |>
  ungroup() |>
  slice_max(cases, n = 6) |>
  pull(state)

covid |>
  filter(state %in% c("California", "Texas", "Florida", "New York", "Illinois", "Pennsylvania"))

[1] "California"   "Texas"        "Florida"      "New York"     "Illinois"    
[6] "Pennsylvania"
# A tibble: 470,209 × 6
   date       county      state      fips  cases deaths
   <date>     <chr>       <chr>      <chr> <dbl>  <dbl>
 1 2020-01-24 Cook        Illinois   17031     1      0
 2 2020-01-25 Orange      California 06059     1      0
 3 2020-01-25 Cook        Illinois   17031     1      0
 4 2020-01-26 Los Angeles California 06037     1      0
 5 2020-01-26 Orange      California 06059     1      0
 6 2020-01-26 Cook        Illinois   17031     1      0
 7 2020-01-27 Los Angeles California 06037     1      0
 8 2020-01-27 Orange      California 06059     1      0
 9 2020-01-27 Cook        Illinois   17031     1      0
10 2020-01-28 Los Angeles California 06037     1      0
# ℹ 470,199 more rows
…
Question 1: State Level

covid

# A tibble: 2,502,832 × 6
   date       county      state      fips  cases deaths
   <date>     <chr>       <chr>      <chr> <dbl>  <dbl>
 1 2020-01-21 Snohomish   Washington 53061     1      0
 2 2020-01-22 Snohomish   Washington 53061     1      0
 3 2020-01-23 Snohomish   Washington 53061     1      0
 4 2020-01-24 Cook        Illinois   17031     1      0
 5 2020-01-24 Snohomish   Washington 53061     1      0
 6 2020-01-25 Orange      California 06059     1      0
 7 2020-01-25 Cook        Illinois   17031     1      0
 8 2020-01-25 Snohomish   Washington 53061     1      0
 9 2020-01-26 Maricopa    Arizona    04013     1      0
10 2020-01-26 Los Angeles California 06037     1      0
# ℹ 2,502,822 more rows

Question 1: State Level

covid |>
  filter(date == max(date))

# A tibble: 3,258 × 6
   date       county   state   fips  cases deaths
   <date>     <chr>    <chr>   <chr> <dbl>  <dbl>
 1 2022-05-13 Autauga  Alabama 01001 15863    216
 2 2022-05-13 Baldwin  Alabama 01003 55862    681
 3 2022-05-13 Barbour  Alabama 01005  5681     98
 4 2022-05-13 Bibb     Alabama 01007  6457    105
 5 2022-05-13 Blount   Alabama 01009 15005    243
 6 2022-05-13 Bullock  Alabama 01011  2319     54
 7 2022-05-13 Butler   Alabama 01013  5068    129
 8 2022-05-13 Calhoun  Alabama 01015 32453    627
 9 2022-05-13 Chambers Alabama 01017  8508    162
10 2022-05-13 Cherokee Alabama 01019  5131     86
# ℹ 3,248 more rows

Question 1: State Level

covid |>
  filter(date == max(date)) |>
  group_by(state)

# A tibble: 3,258 × 6
# Groups:   state [56]
   date       county   state   fips  cases deaths
   <date>     <chr>    <chr>   <chr> <dbl>  <dbl>
 1 2022-05-13 Autauga  Alabama 01001 15863    216
 2 2022-05-13 Baldwin  Alabama 01003 55862    681
 3 2022-05-13 Barbour  Alabama 01005  5681     98
 4 2022-05-13 Bibb     Alabama 01007  6457    105
 5 2022-05-13 Blount   Alabama 01009 15005    243
 6 2022-05-13 Bullock  Alabama 01011  2319     54
 7 2022-05-13 Butler   Alabama 01013  5068    129
 8 2022-05-13 Calhoun  Alabama 01015 32453    627
 9 2022-05-13 Chambers Alabama 01017  8508    162
10 2022-05-13 Cherokee Alabama 01019  5131     86
# ℹ 3,248 more rows

Question 1: State Level

covid |>
  filter(date == max(date)) |>
  group_by(state) |>
  summarize(cases = sum(cases, na.rm = TRUE))

# A tibble: 56 × 2
   state                  cases
   <chr>                  <dbl>
 1 Alabama              1304710
 2 Alaska                254467
 3 American Samoa          5930
 4 Arizona              2030925
 5 Arkansas              838251
 6 California           9351630
 7 Colorado             1412121
 8 Connecticut           779460
 9 Delaware              267265
10 District of Columbia  143943
# ℹ 46 more rows

Question 1: State Level

covid |>
  filter(date == max(date)) |>
  group_by(state) |>
  summarize(cases = sum(cases, na.rm = TRUE)) |>
  ungroup()

# A tibble: 56 × 2
   state                  cases
   <chr>                  <dbl>
 1 Alabama              1304710
 2 Alaska                254467
 3 American Samoa          5930
 4 Arizona              2030925
 5 Arkansas              838251
 6 California           9351630
 7 Colorado             1412121
 8 Connecticut           779460
 9 Delaware              267265
10 District of Columbia  143943
# ℹ 46 more rows
…
Question 1: State Level

covid |>
  filter(date == max(date)) |>
  group_by(state) |>
  summarize(cases = sum(cases, na.rm = TRUE)) |>
  ungroup() |>
  slice_max(cases, n = 6) |>
  pull(state) ->
  top_states

covid

# A tibble: 2,502,832 × 6
   date       county      state      fips  cases deaths
   <date>     <chr>       <chr>      <chr> <dbl>  <dbl>
 1 2020-01-21 Snohomish   Washington 53061     1      0
 2 2020-01-22 Snohomish   Washington 53061     1      0
 3 2020-01-23 Snohomish   Washington 53061     1      0
 4 2020-01-24 Cook        Illinois   17031     1      0
 5 2020-01-24 Snohomish   Washington 53061     1      0
 6 2020-01-25 Orange      California 06059     1      0
 7 2020-01-25 Cook        Illinois   17031     1      0
 8 2020-01-25 Snohomish   Washington 53061     1      0
 9 2020-01-26 Maricopa    Arizona    04013     1      0
10 2020-01-26 Los Angeles California 06037     1      0
# ℹ 2,502,822 more rows
Question 1: State Level

covid |>
  filter(date == max(date)) |>
  group_by(state) |>
  summarize(cases = sum(cases, na.rm = TRUE)) |>
  ungroup() |>
  slice_max(cases, n = 6) |>
  pull(state) ->
  top_states

covid |>
  filter(state %in% top_states)

# A tibble: 470,209 × 6
   date       county      state      fips  cases deaths
   <date>     <chr>       <chr>      <chr> <dbl>  <dbl>
 1 2020-01-24 Cook        Illinois   17031     1      0
 2 2020-01-25 Orange      California 06059     1      0
 3 2020-01-25 Cook        Illinois   17031     1      0
 4 2020-01-26 Los Angeles California 06037     1      0
 5 2020-01-26 Orange      California 06059     1      0
 6 2020-01-26 Cook        Illinois   17031     1      0
 7 2020-01-27 Los Angeles California 06037     1      0
 8 2020-01-27 Orange      California 06059     1      0
 9 2020-01-27 Cook        Illinois   17031     1      0
10 2020-01-28 Los Angeles California 06037     1      0
# ℹ 470,199 more rows
…
covid |>
  filter(date == max(date)) |>
  group_by(state) |>
  summarize(cases = sum(cases, na.rm = TRUE)) |>
  ungroup() |>
  slice_max(cases, n = 6) |>
  pull(state) ->
  top_states

covid |>
  filter(state %in% top_states) |>
  group_by(state, date)

# A tibble: 470,209 × 6
# Groups:   state, date [4,910]
   date       county      state      fips  cases deaths
   <date>     <chr>       <chr>      <chr> <dbl>  <dbl>
 1 2020-01-24 Cook        Illinois   17031     1      0
 2 2020-01-25 Orange      California 06059     1      0
 3 2020-01-25 Cook        Illinois   17031     1      0
 4 2020-01-26 Los Angeles California 06037     1      0
 5 2020-01-26 Orange      California 06059     1      0
 6 2020-01-26 Cook        Illinois   17031     1      0
 7 2020-01-27 Los Angeles California 06037     1      0
 8 2020-01-27 Orange      California 06059     1      0
 9 2020-01-27 Cook        Illinois   17031     1      0
10 2020-01-28 Los Angeles California 06037     1      0
# ℹ 470,199 more rows
…
covid |>
  filter(date == max(date)) |>
  group_by(state) |>
  summarize(cases = sum(cases, na.rm = TRUE)) |>
  ungroup() |>
  slice_max(cases, n = 6) |>
  pull(state) ->
  top_states

covid |>
  filter(state %in% top_states) |>
  group_by(state, date) |>
  summarise(cases = sum(cases))

# A tibble: 4,910 × 3
# Groups:   state [6]
   state      date       cases
   <chr>      <date>     <dbl>
 1 California 2020-01-25     1
 2 California 2020-01-26     2
 3 California 2020-01-27     2
 4 California 2020-01-28     2
 5 California 2020-01-29     2
 6 California 2020-01-30     2
 7 California 2020-01-31     3
 8 California 2020-02-01     3
 9 California 2020-02-02     6
10 California 2020-02-03     6
# ℹ 4,900 more rows
…
covid |>
  filter(state %in% top_states) |>
  group_by(state, date) |>
  summarise(cases = sum(cases)) |>
  ungroup()

# A tibble: 4,910 × 3
   state      date       cases
   <chr>      <date>     <dbl>
 1 California 2020-01-25     1
 2 California 2020-01-26     2
 3 California 2020-01-27     2
 4 California 2020-01-28     2
 5 California 2020-01-29     2
 6 California 2020-01-30     2
 7 California 2020-01-31     3
 8 California 2020-02-01     3
 9 California 2020-02-02     6
10 California 2020-02-03     6
# ℹ 4,900 more rows
…
Question 2: National Level

covid

# A tibble: 2,502,832 × 6
   date       county      state      fips  cases deaths
   <date>     <chr>       <chr>      <chr> <dbl>  <dbl>
 1 2020-01-21 Snohomish   Washington 53061     1      0
 2 2020-01-22 Snohomish   Washington 53061     1      0
 3 2020-01-23 Snohomish   Washington 53061     1      0
 4 2020-01-24 Cook        Illinois   17031     1      0
 5 2020-01-24 Snohomish   Washington 53061     1      0
 6 2020-01-25 Orange      California 06059     1      0
 7 2020-01-25 Cook        Illinois   17031     1      0
 8 2020-01-25 Snohomish   Washington 53061     1      0
 9 2020-01-26 Maricopa    Arizona    04013     1      0
10 2020-01-26 Los Angeles California 06037     1      0
# ℹ 2,502,822 more rows

Question 2: National Level

covid |>
  group_by(date)

# A tibble: 2,502,832 × 6
# Groups:   date [844]
   date       county      state      fips  cases deaths
   <date>     <chr>       <chr>      <chr> <dbl>  <dbl>
 1 2020-01-21 Snohomish   Washington 53061     1      0
 2 2020-01-22 Snohomish   Washington 53061     1      0
 3 2020-01-23 Snohomish   Washington 53061     1      0
 4 2020-01-24 Cook        Illinois   17031     1      0
 5 2020-01-24 Snohomish   Washington 53061     1      0
 6 2020-01-25 Orange      California 06059     1      0
 7 2020-01-25 Cook        Illinois   17031     1      0
 8 2020-01-25 Snohomish   Washington 53061     1      0
 9 2020-01-26 Maricopa    Arizona    04013     1      0
10 2020-01-26 Los Angeles California 06037     1      0
# ℹ 2,502,822 more rows

Question 2: National Level

covid |>
  group_by(date) |>
  summarize(cases = sum(cases))

# A tibble: 844 × 2
   date       cases
   <date>     <dbl>
 1 2020-01-21     1
 2 2020-01-22     1
 3 2020-01-23     1
 4 2020-01-24     2
 5 2020-01-25     3
 6 2020-01-26     5
 7 2020-01-27     5
 8 2020-01-28     5
 9 2020-01-29     5
10 2020-01-30     6
# ℹ 834 more rows
…
At the bottom of the page we can see their FTP (File Transfer Protocol) server

Once there, clicking on 2020-2024/state/totals/ leads us to a .csv URL we can read from!

Population data

url <- 'https://www2.census.gov/programs-surveys/popest/datasets/2020-2024/state/totals/NST-EST2024-ALLDATA.csv'

Population data

url <- 'https://www2.census.gov/programs-surveys/popest/datasets/2020-2024/state/totals/NST-EST2024-ALLDATA.csv'

read_csv(url)

# A tibble: 66 × 75
   SUMLEV REGION DIVISION STATE NAME           ESTIMATESBASE2020 POPESTIMATE2020
   <chr>  <chr>  <chr>    <chr> <chr>                      <dbl>           <dbl>
 1 010    0      0        00    United States          331515736       331577720
 2 020    1      0        00    Northeast Reg…          57617706        57431458
 3 030    1      1        00    New England             15122011        15057350
 4 030    1      2        00    Middle Atlant…          42495695        42374108
 5 020    2      0        00    Midwest Region          68998970        68984258
 6 030    2      3        00    East North Ce…          47381362        47358568
 7 030    2      4        00    West North Ce…          21617608        21625690
 8 020    3      0        00    South Region           126281537       126476549
 9 030    3      5        00    South Atlantic          66097951        66176865
10 030    3      6        00    East South Ce…          19405296        19427852
# ℹ 56 more rows
# ℹ 68 more variables: POPESTIMATE2021 <dbl>, POPESTIMATE2022 <dbl>,
#   POPESTIMATE2023 <dbl>, POPESTIMATE2024 <dbl>, NPOPCHG_2020 <dbl>,
#   NPOPCHG_2021 <dbl>, NPOPCHG_2022 <dbl>, NPOPCHG_2023 <dbl>,
#   NPOPCHG_2024 <dbl>, BIRTHS2020 <dbl>, BIRTHS2021 <dbl>, BIRTHS2022 <dbl>,
#   BIRTHS2023 <dbl>, BIRTHS2024 <dbl>, DEATHS2020 <dbl>, DEATHS2021 <dbl>,
#   DEATHS2022 <dbl>, DEATHS2023 <dbl>, DEATHS2024 <dbl>, …

Population data

url <- 'https://www2.census.gov/programs-surveys/popest/datasets/2020-2024/state/totals/NST-EST2024-ALLDATA.csv'

read_csv(url) |>
  select(name = NAME, pop2024 = POPESTIMATE2024)

# A tibble: 66 × 2
   name                 pop2024
   <chr>                  <dbl>
 1 United States      340110988
 2 Northeast Region    57832935
 3 New England         15386085
 4 Middle Atlantic     42446850
 5 Midwest Region      69596584
 6 East North Central  47619171
 7 West North Central  21977413
 8 South Region       132665693
 9 South Atlantic      69676509
10 East South Central  19916866
# ℹ 56 more rows

Population data

url <- 'https://www2.census.gov/programs-surveys/popest/datasets/2020-2024/state/totals/NST-EST2024-ALLDATA.csv'

read_csv(url) |>
  select(name = NAME, pop2024 = POPESTIMATE2024) |>
  mutate(pop2024_per100k = pop2024 / 100000)

# A tibble: 66 × 3
   name                 pop2024 pop2024_per100k
   <chr>                  <dbl>           <dbl>
 1 United States      340110988           3401.
 2 Northeast Region    57832935            578.
 3 New England         15386085            154.
 4 Middle Atlantic     42446850            424.
 5 Midwest Region      69596584            696.
 6 East North Central  47619171            476.
 7 West North Central  21977413            220.
 8 South Region       132665693           1327.
 9 South Atlantic      69676509            697.
10 East South Central  19916866            199.
# ℹ 56 more rows

Population data

url <- 'https://www2.census.gov/programs-surveys/popest/datasets/2020-2024/state/totals/NST-EST2024-ALLDATA.csv'

read_csv(url) |>
  select(name = NAME, pop2024 = POPESTIMATE2024) |>
  mutate(pop2024_per100k = pop2024 / 100000) ->
  pop

Re-do the Analysis

covid

# A tibble: 2,502,832 × 6
   date       county      state      fips  cases deaths
   <date>     <chr>       <chr>      <chr> <dbl>  <dbl>
 1 2020-01-21 Snohomish   Washington 53061     1      0
 2 2020-01-22 Snohomish   Washington 53061     1      0
 3 2020-01-23 Snohomish   Washington 53061     1      0
 4 2020-01-24 Cook        Illinois   17031     1      0
 5 2020-01-24 Snohomish   Washington 53061     1      0
 6 2020-01-25 Orange      California 06059     1      0
 7 2020-01-25 Cook        Illinois   17031     1      0
 8 2020-01-25 Snohomish   Washington 53061     1      0
 9 2020-01-26 Maricopa    Arizona    04013     1      0
10 2020-01-26 Los Angeles California 06037     1      0
# ℹ 2,502,822 more rows

Re-do the Analysis

covid |>
  filter(date == max(date))

# A tibble: 3,258 × 6
   date       county   state   fips  cases deaths
   <date>     <chr>    <chr>   <chr> <dbl>  <dbl>
 1 2022-05-13 Autauga  Alabama 01001 15863    216
 2 2022-05-13 Baldwin  Alabama 01003 55862    681
 3 2022-05-13 Barbour  Alabama 01005  5681     98
 4 2022-05-13 Bibb     Alabama 01007  6457    105
 5 2022-05-13 Blount   Alabama 01009 15005    243
 6 2022-05-13 Bullock  Alabama 01011  2319     54
 7 2022-05-13 Butler   Alabama 01013  5068    129
 8 2022-05-13 Calhoun  Alabama 01015 32453    627
 9 2022-05-13 Chambers Alabama 01017  8508    162
10 2022-05-13 Cherokee Alabama 01019  5131     86
# ℹ 3,248 more rows
…
