Lecture 09/10 – ESS 330
…
Last Assignment

inner_join(df, covid, by = "state") |>
  group_by(region, date)

# A tibble: 2,438,284 × 8
# Groups:   region, date [3,340]
   region abbr  state   date       county     fips  cases deaths
   <fct>  <chr> <chr>   <date>     <chr>      <chr> <dbl>  <dbl>
 1 South  AL    Alabama 2020-03-13 Elmore     01051     1      0
 2 South  AL    Alabama 2020-03-13 Jefferson  01073     2      0
 3 South  AL    Alabama 2020-03-13 Limestone  01083     1      0
 4 South  AL    Alabama 2020-03-13 Montgomery 01101     1      0
 5 South  AL    Alabama 2020-03-13 Tuscaloosa 01125     1      0
 6 South  AL    Alabama 2020-03-14 Baldwin    01003     1      0
 7 South  AL    Alabama 2020-03-14 Elmore     01051     1      0
 8 South  AL    Alabama 2020-03-14 Jefferson  01073     6      0
 9 South  AL    Alabama 2020-03-14 Limestone  01083     1      0
10 South  AL    Alabama 2020-03-14 Montgomery 01101     1      0
# ℹ 2,438,274 more rows

Last Assignment

inner_join(df, covid, by = "state") |>
  group_by(region, date) |>
  summarize(cases = sum(cases),
            deaths = sum(deaths))

# A tibble: 3,340 × 4
# Groups:   region [4]
   region    date       cases deaths
   <fct>     <date>     <dbl>  <dbl>
 1 Northeast 2020-02-01     1      0
 2 Northeast 2020-02-02     1      0
 3 Northeast 2020-02-03     1      0
 4 Northeast 2020-02-04     1      0
 5 Northeast 2020-02-05     1      0
 6 Northeast 2020-02-06     1      0
 7 Northeast 2020-02-07     1      0
 8 Northeast 2020-02-08     1      0
 9 Northeast 2020-02-09     1      0
10 Northeast 2020-02-10     1      0
# ℹ 3,330 more rows

Last Assignment

inner_join(df, covid, by = "state") |>
  group_by(region, date) |>
  summarize(cases = sum(cases),
            deaths = sum(deaths)) |>
  pivot_longer(cols = c(cases, deaths),
               names_to = "type",
               values_to = "count")

# A tibble: 6,680 × 4
# Groups:   region [4]
   region    date       type   count
   <fct>     <date>     <chr>  <dbl>
 1 Northeast 2020-02-01 cases      1
 2 Northeast 2020-02-01 deaths     0
 3 Northeast 2020-02-02 cases      1
 4 Northeast 2020-02-02 deaths     0
 5 Northeast 2020-02-03 cases      1
 6 Northeast 2020-02-03 deaths     0
 7 Northeast 2020-02-04 cases      1
 8 Northeast 2020-02-04 deaths     0
 9 Northeast 2020-02-05 cases      1
10 Northeast 2020-02-05 deaths     0
# ℹ 6,670 more rows
…
Unnest

unnest removes nested structure, just like ungroup() for groups.

unnest(nested_data, data)
# A tibble: 344 × 8
   species island    bill_length_mm bill_depth_mm flipper_length_mm body_mass_g
   <fct>   <fct>              <dbl>         <dbl>             <int>       <int>
 1 Adelie  Torgersen           39.1          18.7               181        3750
 2 Adelie  Torgersen           39.5          17.4               186        3800
 3 Adelie  Torgersen           40.3          18                 195        3250
 4 Adelie  Torgersen           NA            NA                  NA          NA
 5 Adelie  Torgersen           36.7          19.3               193        3450
 6 Adelie  Torgersen           39.3          20.6               190        3650
 7 Adelie  Torgersen           38.9          17.8               181        3625
 8 Adelie  Torgersen           39.2          19.6               195        4675
 9 Adelie  Torgersen           34.1          18.1               193        3475
10 Adelie  Torgersen           42            20.2               190        4250
# ℹ 334 more rows
# ℹ 2 more variables: sex <fct>, year <int>
…
Explanation:

glance() accepts a model object and returns a tibble() with exactly one row of model summaries. The summaries are typically goodness of fit measures, p-values for hypothesis tests on residuals, or model convergence information.

Extracting Model Summaries with broom

nested_data |> 
  mutate(model   = map(data, ~lm(flipper_length_mm ~ body_mass_g, data = .x)),
         summary = map2(model, data, ~broom::augment(.x, newdata = .y))) |> 
  unnest(summary)
# A tibble: 333 × 12
   species data     model  island bill_length_mm bill_depth_mm flipper_length_mm
   <fct>   <list>   <list> <fct>           <dbl>         <dbl>             <int>
 1 Adelie  <tibble> <lm>   Torge…           39.1          18.7               181
 2 Adelie  <tibble> <lm>   Torge…           39.5          17.4               186
 3 Adelie  <tibble> <lm>   Torge…           40.3          18                 195
 4 Adelie  <tibble> <lm>   Torge…           36.7          19.3               193
 5 Adelie  <tibble> <lm>   Torge…           39.3          20.6               190
 6 Adelie  <tibble> <lm>   Torge…           38.9          17.8               181
 7 Adelie  <tibble> <lm>   Torge…           39.2          19.6               195
 8 Adelie  <tibble> <lm>   Torge…           41.1          17.6               182
 9 Adelie  <tibble> <lm>   Torge…           38.6          21.2               191
10 Adelie  <tibble> <lm>   Torge…           34.6          21.1               198
# ℹ 323 more rows
# ℹ 5 more variables: body_mass_g <int>, sex <fct>, year <int>, .fitted <dbl>,
#   .resid <dbl>
Explanation:

augment accepts a model object and a dataset and adds information about each observation in the dataset. Most commonly, this includes predicted values in the .fitted column, residuals in the .resid column, and standard errors for the fitted values in a .se.fit column. New columns always begin with a . prefix to avoid overwriting columns in the original dataset.

Since augment requires the dataset and model, map2 is needed!!!

Putting it togther

Can we model the relationship between body mass and flipper length for each species and island?

Putting it Together

penguins

# A tibble: 344 × 8
   species island    bill_length_mm bill_depth_mm flipper_length_mm body_mass_g
   <fct>   <fct>              <dbl>         <dbl>             <int>       <int>
 1 Adelie  Torgersen           39.1          18.7               181        3750
 2 Adelie  Torgersen           39.5          17.4               186        3800
 3 Adelie  Torgersen           40.3          18                 195        3250
 4 Adelie  Torgersen           NA            NA                  NA          NA
 5 Adelie  Torgersen           36.7          19.3               193        3450
 6 Adelie  Torgersen           39.3          20.6               190        3650
 7 Adelie  Torgersen           38.9          17.8               181        3625
 8 Adelie  Torgersen           39.2          19.6               195        4675
 9 Adelie  Torgersen           34.1          18.1               193        3475
10 Adelie  Torgersen           42            20.2               190        4250
# ℹ 334 more rows
# ℹ 2 more variables: sex <fct>, year <int>

Putting it Together

penguins |>
  drop_na()

# A tibble: 333 × 8
   species island    bill_length_mm bill_depth_mm flipper_length_mm body_mass_g
   <fct>   <fct>              <dbl>         <dbl>             <int>       <int>
 1 Adelie  Torgersen           39.1          18.7               181        3750
 2 Adelie  Torgersen           39.5          17.4               186        3800
 3 Adelie  Torgersen           40.3          18                 195        3250
 4 Adelie  Torgersen           36.7          19.3               193        3450
 5 Adelie  Torgersen           39.3          20.6               190        3650
 6 Adelie  Torgersen           38.9          17.8               181        3625
 7 Adelie  Torgersen           39.2          19.6               195        4675
 8 Adelie  Torgersen           41.1          17.6               182        3200
 9 Adelie  Torgersen           38.6          21.2               191        3800
10 Adelie  Torgersen           34.6          21.1               198        4400
# ℹ 323 more rows
# ℹ 2 more variables: sex <fct>, year <int>
…
