Lecture 09 – ESS 330
…
nested_data |> 
  mutate(mean_x = map_dbl(data, ~mean(.x$x))) 
# A tibble: 2 × 3
  group data             mean_x
  <chr> <list>            <dbl>
1 A     <tibble [3 × 2]>      2
2 B     <tibble [3 × 2]>      5

So what?

So you might be asking why all this extra work over group_by/summarize?

(gm2007 <-  filter(gapminder, year == 2007) )
# A tibble: 142 × 6
   country     continent  year lifeExp       pop gdpPercap
   <fct>       <fct>     <int>   <dbl>     <int>     <dbl>
 1 Afghanistan Asia       2007    43.8  31889923      975.
 2 Albania     Europe     2007    76.4   3600523     5937.
 3 Algeria     Africa     2007    72.3  33333216     6223.
 4 Angola      Africa     2007    42.7  12420476     4797.
 5 Argentina   Americas   2007    75.3  40301927    12779.
 6 Australia   Oceania    2007    81.2  20434176    34435.
 7 Austria     Europe     2007    79.8   8199783    36126.
 8 Bahrain     Asia       2007    75.6    708573    29796.
 9 Bangladesh  Asia       2007    64.1 150448339     1391.
10 Belgium     Europe     2007    79.4  10392226    33693.
# ℹ 132 more rows
…
