Lecture 13
…
filter(conc.wide, is.na(Bicarbonate))
#> # A tibble: 77 × 7
#>    SiteID        SiteName  year Bicarbonate Calcium Magnesium  MgCa
#>    <chr>         <chr>    <dbl>       <dbl>   <dbl>     <dbl> <dbl>
#>  1 USGS-09069000 Eagle     1979          NA    78.3      16.0  94.3
#>  2 USGS-09069000 Eagle     1980          NA   100        21   121  
#>  3 USGS-09069000 Eagle     1981          NA    75        14.1  89.1
#>  4 USGS-09069000 Eagle     1982          NA    65.5      13.4  78.9
#>  5 USGS-09069000 Eagle     1983          NA    94.3      18.3 113. 
#>  6 USGS-09069000 Eagle     1984          NA    65.5      14.5  80  
#>  7 USGS-09069000 Eagle     1985          NA    84.5      18   102. 
#>  8 USGS-09069000 Eagle     1986          NA    80.2      17.0  97.2
#>  9 USGS-09069000 Eagle     1987          NA    84.5      17.2 102. 
#> 10 USGS-09069000 Eagle     1988          NA    79        15.5  94.5
#> # ℹ 67 more rows
…
